(module Buzzer_Murata_PKM13EPYH4000 (layer F.Cu) (tedit 62638F93)
  (descr "Murata 4kHz piezo buzzer")
  (tags "piezo, buzzer")
  (fp_text reference REF** (at 0 -2.4) (layer F.SilkS)
    (effects (font (size 1 1) (thickness 0.15)))
  )
  (fp_text value MURATA_PKM13EPYH4000-A0 (at 0 -7.2) (layer F.Fab)
    (effects (font (size 1 1) (thickness 0.15)))
  )
  (fp_circle (center 0 0) (end 6.5 0) (layer F.CrtYd) (width 0.15))
  (fp_circle (center 0 0) (end 6.5 0) (layer F.SilkS) (width 0.15))
  (pad 1 thru_hole circle (at -2.5 0) (size 1.7 1.7) (drill 0.8) (layers *.Cu *.Mask))
  (pad 2 thru_hole circle (at 2.5 0) (size 1.7 1.7) (drill 0.8) (layers *.Cu *.Mask))
)
